Introduction to data handling and visualisation in R
…
                            As we did with the vector, we can extract parts of the data frame
using indices. For a data frame we can select the nth row, or the nth
column using square brackets (note where the comma is paced).

routine_data[,1]  # First column

## # A tibble: 1,200 × 1
##    adm1 
##    <chr>
##  1 West 
##  2 West 
##  3 West 
##  4 West 
##  5 West 
##  6 West 
##  7 West 
##  8 West 
##  9 West 
## 10 West 
## # … with 1,190 more rows
…
